multdiv/simulation/qsim/multdiv.msim.vcd
$comment
	File created using the following command:
		vcd file multdiv.msim.vcd -direction
$end
$date
	Mon Feb 29 16:18:47 2016
$end
$version
	ModelSim Version 10.1d
$end
$timescale
	1ps
$end
$scope module booth_decoder_vlg_vec_tst $end
$var reg 3 ! booth_operation [2:0] $end
$var reg 32 " multiplicand [31:0] $end
$var wire 1 # adder_output [31] $end
$var wire 1 $ adder_output [30] $end
$var wire 1 % adder_output [29] $end
$var wire 1 & adder_output [28] $end
$var wire 1 ' adder_output [27] $end
$var wire 1 ( adder_output [26] $end
$var wire 1 ) adder_output [25] $end
$var wire 1 * adder_output [24] $end
$var wire 1 + adder_output [23] $end
$var wire 1 , adder_output [22] $end
$var wire 1 - adder_output [21] $end
$var wire 1 . adder_output [20] $end
$var wire 1 / adder_output [19] $end
$var wire 1 0 adder_output [18] $end
$var wire 1 1 adder_output [17] $end
$var wire 1 2 adder_output [16] $end
$var wire 1 3 adder_output [15] $end
$var wire 1 4 adder_output [14] $end
$var wire 1 5 adder_output [13] $end
$var wire 1 6 adder_output [12] $end
$var wire 1 7 adder_output [11] $end
$var wire 1 8 adder_output [10] $end
$var wire 1 9 adder_output [9] $end
$var wire 1 : adder_output [8] $end
$var wire 1 ; adder_output [7] $end
$var wire 1 < adder_output [6] $end
$var wire 1 = adder_output [5] $end
$var wire 1 > adder_output [4] $end
$var wire 1 ? adder_output [3] $end
$var wire 1 @ adder_output [2] $end
$var wire 1 A adder_output [1] $end
$var wire 1 B adder_output [0] $end
$var wire 1 C carry_in $end
$scope module i1 $end
$var wire 1 D gnd $end
$var wire 1 E vcc $end
$var wire 1 F unknown $end
$var tri1 1 G devclrn $end
$var tri1 1 H devpor $end
$var tri1 1 I devoe $end
$var wire 1 J adder_output[0]~output_o $end
$var wire 1 K adder_output[1]~output_o $end
$var wire 1 L adder_output[2]~output_o $end
$var wire 1 M adder_output[3]~output_o $end
$var wire 1 N adder_output[4]~output_o $end
$var wire 1 O adder_output[5]~output_o $end
$var wire 1 P adder_output[6]~output_o $end
$var wire 1 Q adder_output[7]~output_o $end
$var wire 1 R adder_output[8]~output_o $end
$var wire 1 S adder_output[9]~output_o $end
$var wire 1 T adder_output[10]~output_o $end
$var wire 1 U adder_output[11]~output_o $end
$var wire 1 V adder_output[12]~output_o $end
$var wire 1 W adder_output[13]~output_o $end
$var wire 1 X adder_output[14]~output_o $end
$var wire 1 Y adder_output[15]~output_o $end
$var wire 1 Z adder_output[16]~output_o $end
$var wire 1 [ adder_output[17]~output_o $end
$var wire 1 \ adder_output[18]~output_o $end
$var wire 1 ] adder_output[19]~output_o $end
$var wire 1 ^ adder_output[20]~output_o $end
$var wire 1 _ adder_output[21]~output_o $end
$var wire 1 ` adder_output[22]~output_o $end
$var wire 1 a adder_output[23]~output_o $end
$var wire 1 b adder_output[24]~output_o $end
$var wire 1 c adder_output[25]~output_o $end
$var wire 1 d adder_output[26]~output_o $end
$var wire 1 e adder_output[27]~output_o $end
$var wire 1 f adder_output[28]~output_o $end
$var wire 1 g adder_output[29]~output_o $end
$var wire 1 h adder_output[30]~output_o $end
$var wire 1 i adder_output[31]~output_o $end
$var wire 1 j carry_in~output_o $end
$var wire 1 k booth_operation[0]~input_o $end
$var wire 1 l booth_operation[1]~input_o $end
$var wire 1 m booth_operation[2]~input_o $end
$var wire 1 n multiplicand[0]~input_o $end
$var wire 1 o adder_output[0]~32_combout $end
$var wire 1 p ShiftLeft0~1_combout $end
$var wire 1 q multiplicand[1]~input_o $end
$var wire 1 r adder_output[1]~33_combout $end
$var wire 1 s ShiftLeft0~0_combout $end
$var wire 1 t adder_output[1]~34_combout $end
$var wire 1 u multiplicand[2]~input_o $end
$var wire 1 v adder_output[2]~35_combout $end
$var wire 1 w adder_output[2]~36_combout $end
$var wire 1 x multiplicand[3]~input_o $end
$var wire 1 y adder_output[3]~37_combout $end
$var wire 1 z adder_output[3]~38_combout $end
$var wire 1 { multiplicand[4]~input_o $end
$var wire 1 | adder_output[4]~39_combout $end
$var wire 1 } adder_output[4]~40_combout $end
$var wire 1 ~ multiplicand[5]~input_o $end
$var wire 1 !! adder_output[5]~41_combout $end
$var wire 1 "! adder_output[5]~42_combout $end
$var wire 1 #! multiplicand[6]~input_o $end
$var wire 1 $! adder_output[6]~43_combout $end
$var wire 1 %! adder_output[6]~44_combout $end
$var wire 1 &! multiplicand[7]~input_o $end
$var wire 1 '! adder_output[7]~45_combout $end
$var wire 1 (! adder_output[7]~46_combout $end
$var wire 1 )! multiplicand[8]~input_o $end
$var wire 1 *! adder_output[8]~47_combout $end
$var wire 1 +! adder_output[8]~48_combout $end
$var wire 1 ,! multiplicand[9]~input_o $end
$var wire 1 -! adder_output[9]~49_combout $end
$var wire 1 .! adder_output[9]~50_combout $end
$var wire 1 /! multiplicand[10]~input_o $end
$var wire 1 0! adder_output[10]~51_combout $end
$var wire 1 1! adder_output[10]~52_combout $end
$var wire 1 2! multiplicand[11]~input_o $end
$var wire 1 3! adder_output[11]~53_combout $end
$var wire 1 4! adder_output[11]~54_combout $end
$var wire 1 5! multiplicand[12]~input_o $end
$var wire 1 6! adder_output[12]~55_combout $end
$var wire 1 7! adder_output[12]~56_combout $end
$var wire 1 8! multiplicand[13]~input_o $end
$var wire 1 9! adder_output[13]~57_combout $end
$var wire 1 :! adder_output[13]~58_combout $end
$var wire 1 ;! multiplicand[14]~input_o $end
$var wire 1 <! adder_output[14]~59_combout $end
$var wire 1 =! adder_output[14]~60_combout $end
$var wire 1 >! multiplicand[15]~input_o $end
$var wire 1 ?! adder_output[15]~61_combout $end
$var wire 1 @! adder_output[15]~62_combout $end
$var wire 1 A! multiplicand[16]~input_o $end
$var wire 1 B! adder_output[16]~63_combout $end
$var wire 1 C! adder_output[16]~64_combout $end
$var wire 1 D! multiplicand[17]~input_o $end
$var wire 1 E! adder_output[17]~65_combout $end
$var wire 1 F! adder_output[17]~66_combout $end
$var wire 1 G! multiplicand[18]~input_o $end
$var wire 1 H! adder_output[18]~67_combout $end
$var wire 1 I! adder_output[18]~68_combout $end
$var wire 1 J! multiplicand[19]~input_o $end
$var wire 1 K! adder_output[19]~69_combout $end
$var wire 1 L! adder_output[19]~70_combout $end
$var wire 1 M! multiplicand[20]~input_o $end
$var wire 1 N! adder_output[20]~71_combout $end
$var wire 1 O! adder_output[20]~72_combout $end
$var wire 1 P! multiplicand[21]~input_o $end
$var wire 1 Q! adder_output[21]~73_combout $end
$var wire 1 R! adder_output[21]~74_combout $end
$var wire 1 S! multiplicand[22]~input_o $end
$var wire 1 T! adder_output[22]~75_combout $end
$var wire 1 U! adder_output[22]~76_combout $end
$var wire 1 V! multiplicand[23]~input_o $end
$var wire 1 W! adder_output[23]~77_combout $end
$var wire 1 X! adder_output[23]~78_combout $end
$var wire 1 Y! multiplicand[24]~input_o $end
$var wire 1 Z! adder_output[24]~79_combout $end
$var wire 1 [! adder_output[24]~80_combout $end
$var wire 1 \! multiplicand[25]~input_o $end
$var wire 1 ]! adder_output[25]~81_combout $end
$var wire 1 ^! adder_output[25]~82_combout $end
$var wire 1 _! multiplicand[26]~input_o $end
$var wire 1 `! adder_output[26]~83_combout $end
$var wire 1 a! adder_output[26]~84_combout $end
$var wire 1 b! multiplicand[27]~input_o $end
$var wire 1 c! adder_output[27]~85_combout $end
$var wire 1 d! adder_output[27]~86_combout $end
$var wire 1 e! multiplicand[28]~input_o $end
$var wire 1 f! adder_output[28]~87_combout $end
$var wire 1 g! adder_output[28]~88_combout $end
$var wire 1 h! multiplicand[29]~input_o $end
$var wire 1 i! adder_output[29]~89_combout $end
$var wire 1 j! adder_output[29]~90_combout $end
$var wire 1 k! multiplicand[30]~input_o $end
$var wire 1 l! adder_output[30]~91_combout $end
$var wire 1 m! adder_output[30]~92_combout $end
$var wire 1 n! multiplicand[31]~input_o $end
$var wire 1 o! adder_output[31]~93_combout $end
$var wire 1 p! adder_output[31]~94_combout $end
$var wire 1 q! carry_in~0_combout $end
$upscope $end
$upscope $end
$enddefinitions $end
#0
$dumpvars
b0 !
b1001 "
0B
0A
0@
0?
0>
0=
0<
0;
0:
09
08
07
06
05
04
03
02
01
00
0/
0.
0-
0,
0+
0*
0)
0(
0'
0&
0%
0$
0#
0C
0D
1E
xF
1G
1H
1I
0J
0K
0L
0M
0N
0O
0P
0Q
0R
0S
0T
0U
0V
0W
0X
0Y
0Z
0[
0\
0]
0^
0_
0`
0a
0b
0c
0d
0e
0f
0g
0h
0i
0j
0k
0l
0m
1n
0o
0p
0q
0r
1s
0t
0u
0v
0w
1x
0y
0z
0{
0|
0}
0~
0!!
0"!
0#!
0$!
0%!
0&!
0'!
0(!
0)!
0*!
0+!
0,!
0-!
0.!
0/!
00!
01!
02!
03!
04!
05!
06!
07!
08!
09!
0:!
0;!
0<!
0=!
0>!
0?!
0@!
0A!
0B!
0C!
0D!
0E!
0F!
0G!
0H!
0I!
0J!
0K!
0L!
0M!
0N!
0O!
0P!
0Q!
0R!
0S!
0T!
0U!
0V!
0W!
0X!
0Y!
0Z!
0[!
0\!
0]!
0^!
0_!
0`!
0a!
0b!
0c!
0d!
0e!
0f!
0g!
0h!
0i!
0j!
0k!
0l!
0m!
0n!
0o!
0p!
0q!
$end
#110000
b1 !
1k
1y
1o
1J
1B
1z
1M
1?
#210000
b11 !
b10 !
0k
1l
#340000
b11 !
1k
1o!
1l!
1i!
1f!
1c!
1`!
1]!
1Z!
1W!
1T!
1Q!
1N!
1K!
1H!
1E!
1B!
1?!
1<!
19!
16!
13!
10!
1-!
1*!
1'!
1$!
1!!
1|
1v
1r
1p
0o
0J
0B
1}
1t
0z
1N
1K
0M
1>
1A
0?
#470000
b111 !
b101 !
b100 !
0k
0l
1m
0s
0p
1q!
1j
1C
1p!
1m!
1j!
1g!
1d!
1a!
1^!
1[!
1X!
1U!
1R!
1O!
1L!
1I!
1F!
1C!
1@!
1=!
1:!
17!
14!
11!
1.!
1+!
1(!
1%!
1"!
0}
1z
1w
0t
1i
1h
1g
1f
1e
1d
1c
1b
1a
1`
1_
1^
1]
1\
1[
1Z
1Y
1X
1W
1V
1U
1T
1S
1R
1Q
1P
1O
0N
1M
1L
0K
1#
1$
1%
1&
1'
1(
1)
1*
1+
1,
1-
1.
1/
10
11
12
13
14
15
16
17
18
19
1:
1;
1<
1=
0>
1?
1@
0A
#600000
b101 !
1k
0y
1s
0z
1}
1t
0M
1N
1K
0?
1>
1A
#750000
b111 !
b110 !
0k
1l
#920000
b111 !
1k
0o!
0l!
0i!
0f!
0c!
0`!
0]!
0Z!
0W!
0T!
0Q!
0N!
0K!
0H!
0E!
0B!
0?!
0<!
09!
06!
03!
00!
0-!
0*!
0'!
0$!
0!!
0|
0v
0r
0q!
0j
0C
0p!
0m!
0j!
0g!
0d!
0a!
0^!
0[!
0X!
0U!
0R!
0O!
0L!
0I!
0F!
0C!
0@!
0=!
0:!
07!
04!
01!
0.!
0+!
0(!
0%!
0"!
0}
0w
0t
0i
0h
0g
0f
0e
0d
0c
0b
0a
0`
0_
0^
0]
0\
0[
0Z
0Y
0X
0W
0V
0U
0T
0S
0R
0Q
0P
0O
0N
0L
0K
0#
0$
0%
0&
0'
0(
0)
0*
0+
0,
0-
0.
0/
00
01
02
03
04
05
06
07
08
09
0:
0;
0<
0=
0>
0@
0A
